%YAML 1.1
%TAG !u! tag:unity3d.com,2011:
--- !u!114 &11400000
MonoBehaviour:
  m_ObjectHideFlags: 0
  m_CorrespondingSourceObject: {fileID: 0}
  m_PrefabInstance: {fileID: 0}
  m_PrefabAsset: {fileID: 0}
  m_GameObject: {fileID: 0}
  m_Enabled: 1
  m_EditorHideFlags: 0
  m_Script: {fileID: 11500000, guid: 38ed88474fbf3d54a9215deb1ad609b3, type: 3}
  m_Name: PhyisicalSkillType
  m_EditorClassIdentifier: 
  skillTypeName: Physical
  skillTypeDescription: A more down to earth attack!
  statTypeIcon: {fileID: 0}
